…
    ## [1] 0.655624

What can you say about the relationship between these two variables?

*Based on the scatterplot and the linear correlation coefficient, there's a positive association between **EFF** and **Salary**.*

Because rookie players (and other low-experience players) seem to form a different universe of players, let's see what's happening with those individuals with a more "solid" or more established trajectory in the NBA.
- Taking into account the column MPG (minutes per game) select those players that have an MPG value of 20 or more minutes per game. - Create a data frame `players2` with these players.

``` r
players2 <- nba_dat[nba_dat$MPG >= 20,]
players2
```

    ## # A tibble: 231 x 30
    ##            Player  Team Position Experience   Salary  Rank   Age    GP
    ##             <chr> <chr>   <fctr>      <int>    <dbl> <int> <int> <int>
    ##  1     Al Horford   BOS        C          9 26540100     4    30    68
    ##  2   Amir Johnson   BOS       PF         11 12000000     6    29    80
    ##  3  Avery Bradley   BOS       SG          6  8269663     5    26    55
    ##  4  Isaiah Thomas   BOS       PG          5  6587132     1    27    76
    ##  5    Jae Crowder   BOS       SF          4  6286408     3    26    72
    ##  6   Kelly Olynyk   BOS        C          3  3094014     7    25    75
    ##  7   Marcus Smart   BOS       SG          2  3578880     2    22    79
    ##  8 Deron Williams   CLE       PG         11   259626    11    32    24
    ##  9    Edy Tavares   CLE        C          1     5145    18    24     1
    ## 10  Iman Shumpert   CLE       SG          5  9700000     4    26    76
    ## # ... with 221 more rows, and 22 more variables: GS <int>, MIN <int>,
    ## #   FGM <int>, FGA <int>, Points3 <int>, Points3_atts <int>,
    ## #   Points2 <int>, Points2_atts <int>, FTM <int>, FTA <int>, OREB <int>,
    ## #   DREB <int>, AST <int>, STL <int>, BLK <int>, TO <int>,
    ## #   Missed_FG <int>, Missed_FT <int>, PTS <dbl>, REB <int>, MPG <dbl>,
    ## #   EFF <dbl>
…
