package ‘ggvis’ successfully unpacked and MD5 sums checked

The downloaded binary packages are in
	C:\Users\Daisy\AppData\Local\Temp\RtmpWcwjdr\downloaded_packages
# A tibble: 334 x 24
      X1   HW1   HW2   HW3   HW4    HW5   HW6   HW7   HW8   HW9   ATT       QZ1       QZ2   QZ3   QZ4
   <int> <dbl> <dbl> <dbl> <dbl>  <dbl> <dbl> <dbl> <dbl> <dbl> <int>     <dbl>     <dbl> <dbl> <int>
 1     1 100.0   100 100.0   100 100.00   100   100 100.0   100    12 100.00000 100.00000   100   100
 2     2  85.0    95 100.0    95  95.00    95   100 100.0   100    12  91.66667  88.88889    90    95
 3     3  87.5   100  85.0    70 100.00    98     0  80.0     0     7  83.33333  55.55556    50     0
 4     4  92.5   100 100.0   100  96.25    99   100  92.5    95    12  66.66667  88.88889    65    65
 5     5  32.5     0  65.0    60   0.00    46     0   0.0     0     5  41.66667  50.00000     0     0
 6     6  75.0    85  92.5    95 100.00    91     0   0.0    90     9  91.66667  94.44444     0    75
 7     7  90.0   100  97.5    95  80.00    80    52  90.0    90    12  91.66667  50.00000    75    90
 8     8  92.5    95 100.0    90 100.00    72    95  74.5   100    12  83.33333  44.44444    60    65
 9     9  82.5    85  92.5    70 100.00     0    84  90.0    95    12  91.66667 100.00000    70    95
10    10  75.0    95  95.0    95  95.00    96     0 100.0    98    12  58.33333  55.55556    65    80
# ... with 324 more rows, and 9 more variables: EX1 <dbl>, EX2 <dbl>, Test1 <dbl>, Test2 <dbl>,
#   Homework <dbl>, Quiz <dbl>, Lab <int>, Overall <dbl>, Grade <chr>
# A tibble: 334 x 24
      X1   HW1   HW2   HW3   HW4    HW5   HW6   HW7   HW8   HW9   ATT       QZ1       QZ2   QZ3   QZ4
   <int> <dbl> <dbl> <dbl> <dbl>  <dbl> <dbl> <dbl> <dbl> <dbl> <int>     <dbl>     <dbl> <dbl> <int>
 1     1 100.0   100 100.0   100 100.00   100   100 100.0   100    12 100.00000 100.00000   100   100
 2     2  85.0    95 100.0    95  95.00    95   100 100.0   100    12  91.66667  88.88889    90    95
 3     3  87.5   100  85.0    70 100.00    98     0  80.0     0     7  83.33333  55.55556    50     0
 4     4  92.5   100 100.0   100  96.25    99   100  92.5    95    12  66.66667  88.88889    65    65
 5     5  32.5     0  65.0    60   0.00    46     0   0.0     0     5  41.66667  50.00000     0     0
 6     6  75.0    85  92.5    95 100.00    91     0   0.0    90     9  91.66667  94.44444     0    75
 7     7  90.0   100  97.5    95  80.00    80    52  90.0    90    12  91.66667  50.00000    75    90
 8     8  92.5    95 100.0    90 100.00    72    95  74.5   100    12  83.33333  44.44444    60    65
 9     9  82.5    85  92.5    70 100.00     0    84  90.0    95    12  91.66667 100.00000    70    95
10    10  75.0    95  95.0    95  95.00    96     0 100.0    98    12  58.33333  55.55556    65    80
# ... with 324 more rows, and 9 more variables: EX1 <dbl>, EX2 <dbl>, Test1 <dbl>, Test2 <dbl>,
#   Homework <dbl>, Quiz <dbl>, Lab <int>, Overall <dbl>, Grade <chr>
# A tibble: 334 x 23
     HW1   HW2   HW3   HW4    HW5   HW6   HW7   HW8   HW9   ATT       QZ1       QZ2   QZ3   QZ4   EX1
   <dbl> <dbl> <dbl> <dbl>  <dbl> <dbl> <dbl> <dbl> <dbl> <int>     <dbl>     <dbl> <dbl> <int> <dbl>
 1 100.0   100 100.0   100 100.00   100   100 100.0   100    12 100.00000 100.00000   100   100  80.0
 2  85.0    95 100.0    95  95.00    95   100 100.0   100    12  91.66667  88.88889    90    95  57.6
 3  87.5   100  85.0    70 100.00    98     0  80.0     0     7  83.33333  55.55556    50     0  56.8
 4  92.5   100 100.0   100  96.25    99   100  92.5    95    12  66.66667  88.88889    65    65  69.6
 5  32.5     0  65.0    60   0.00    46     0   0.0     0     5  41.66667  50.00000     0     0  40.0
 6  75.0    85  92.5    95 100.00    91     0   0.0    90     9  91.66667  94.44444     0    75  73.6
 7  90.0   100  97.5    95  80.00    80    52  90.0    90    12  91.66667  50.00000    75    90  78.4
 8  92.5    95 100.0    90 100.00    72    95  74.5   100    12  83.33333  44.44444    60    65  52.0
 9  82.5    85  92.5    70 100.00     0    84  90.0    95    12  91.66667 100.00000    70    95  80.0
10  75.0    95  95.0    95  95.00    96     0 100.0    98    12  58.33333  55.55556    65    80  63.2
# ... with 324 more rows, and 8 more variables: EX2 <dbl>, Test1 <dbl>, Test2 <dbl>, Homework <dbl>,
#   Quiz <dbl>, Lab <int>, Overall <dbl>, Grade <chr>
# A tibble: 334 x 23
     HW1   HW2   HW3   HW4    HW5   HW6   HW7   HW8   HW9   ATT       QZ1       QZ2   QZ3   QZ4   EX1
   <dbl> <dbl> <dbl> <dbl>  <dbl> <dbl> <dbl> <dbl> <dbl> <int>     <dbl>     <dbl> <dbl> <int> <dbl>
 1 100.0   100 100.0   100 100.00   100   100 100.0   100    12 100.00000 100.00000   100   100  80.0
 2  85.0    95 100.0    95  95.00    95   100 100.0   100    12  91.66667  88.88889    90    95  57.6
 3  87.5   100  85.0    70 100.00    98     0  80.0     0     7  83.33333  55.55556    50     0  56.8
 4  92.5   100 100.0   100  96.25    99   100  92.5    95    12  66.66667  88.88889    65    65  69.6
 5  32.5     0  65.0    60   0.00    46     0   0.0     0     5  41.66667  50.00000     0     0  40.0
 6  75.0    85  92.5    95 100.00    91     0   0.0    90     9  91.66667  94.44444     0    75  73.6
 7  90.0   100  97.5    95  80.00    80    52  90.0    90    12  91.66667  50.00000    75    90  78.4
 8  92.5    95 100.0    90 100.00    72    95  74.5   100    12  83.33333  44.44444    60    65  52.0
 9  82.5    85  92.5    70 100.00     0    84  90.0    95    12  91.66667 100.00000    70    95  80.0
10  75.0    95  95.0    95  95.00    96     0 100.0    98    12  58.33333  55.55556    65    80  63.2
# ... with 324 more rows, and 8 more variables: EX2 <dbl>, Test1 <dbl>, Test2 <dbl>, Homework <dbl>,
#   Quiz <dbl>, Lab <int>, Overall <dbl>, Grade <chr>
…
[113]  77.5  88.5  72.5  87.0  75.0  92.5  84.0  77.5  62.5  80.0   0.0  87.5  77.5  92.5  88.5  50.0
[129]  80.0  77.5  86.0 100.0  95.0 100.0  60.0  87.5  99.0 100.0  82.5  52.5  60.0  90.0  87.5  92.5
[145]  87.5  85.0  83.5  85.0  92.5  92.5  86.0  92.5  82.5  85.0  77.5  70.0  77.5  92.5  89.5  89.0
[161]  65.0  92.5  92.5  92.5  70.0  80.0  92.5  82.5  80.0  42.5  80.0  70.0  90.0  70.0 100.0 100.0
[177]  40.0  92.5  92.5  87.0  75.0 100.0  85.0  92.5  85.0  80.0  65.0  60.0  75.0  67.5  73.5  75.0
[193]  70.0  82.5  91.5 100.0  95.0  62.5  52.5  92.5 100.0  82.0  72.5  82.5  89.5  95.0  92.5  92.5
[209]  67.0  90.0  90.0   0.0  77.5  90.0  85.0 100.0  75.0  88.5  77.5  72.5  55.0  90.0  67.5  73.5
[225]  92.5  65.0  92.5  88.5  72.5  87.5  77.5  73.5 100.0  94.0  97.5  94.5  92.5 100.0 100.0  92.5
[241]  95.0  92.5  92.5  87.5  80.0  82.5  82.5  96.0  75.0  92.5  94.5  72.5 100.0  92.5 100.0  93.0
[257] 100.0  92.5  92.5  68.0  92.5  57.5  89.5  89.5  75.0  87.5  57.5  52.5  82.5  62.5  65.0  85.0
[273] 100.0  87.5  92.5  62.5  87.0  60.0  79.0  87.5  60.0  90.0  92.5  87.5   0.0  70.0  82.5 100.0
[289]  82.5   0.0  77.5  92.5  92.5  73.5  92.5  92.5  52.5  77.5  72.5  78.5  80.0  62.5  94.0  66.0
[305]  77.5  87.5  99.5  82.5  85.0  52.5  87.5  92.5  47.5  98.0  80.5  60.0   0.0  92.5  92.5  87.5
[321]  65.0  92.5  82.5   0.0  82.5  82.5  72.5  72.5   0.0  88.5  95.0  72.5 100.0  92.5
# A tibble: 334 x 23
     HW1   HW2   HW3   HW4    HW5   HW6   HW7   HW8   HW9   ATT       QZ1       QZ2   QZ3   QZ4   EX1
   <dbl> <dbl> <dbl> <dbl>  <dbl> <dbl> <dbl> <dbl> <dbl> <dbl>     <dbl>     <dbl> <dbl> <dbl> <dbl>
 1 100.0   100 100.0   100 100.00   100   100 100.0   100    12 100.00000 100.00000   100   100  80.0
 2  85.0    95 100.0    95  95.00    95   100 100.0   100    12  91.66667  88.88889    90    95  57.6
 3  87.5   100  85.0    70 100.00    98     0  80.0     0     7  83.33333  55.55556    50     0  56.8
 4  92.5   100 100.0   100  96.25    99   100  92.5    95    12  66.66667  88.88889    65    65  69.6
 5  32.5     0  65.0    60   0.00    46     0   0.0     0     5  41.66667  50.00000     0     0  40.0
 6  75.0    85  92.5    95 100.00    91     0   0.0    90     9  91.66667  94.44444     0    75  73.6
 7  90.0   100  97.5    95  80.00    80    52  90.0    90    12  91.66667  50.00000    75    90  78.4
 8  92.5    95 100.0    90 100.00    72    95  74.5   100    12  83.33333  44.44444    60    65  52.0
 9  82.5    85  92.5    70 100.00     0    84  90.0    95    12  91.66667 100.00000    70    95  80.0
10  75.0    95  95.0    95  95.00    96     0 100.0    98    12  58.33333  55.55556    65    80  63.2
# ... with 324 more rows, and 8 more variables: EX2 <dbl>, Test1 <dbl>, Test2 <dbl>, Homework <dbl>,
#   Quiz <dbl>, Lab <dbl>, Overall <dbl>, Grade <chr>
# A tibble: 334 x 23
     HW1   HW2   HW3   HW4    HW5   HW6   HW7   HW8   HW9   ATT       QZ1       QZ2   QZ3   QZ4   EX1
   <dbl> <dbl> <dbl> <dbl>  <dbl> <dbl> <dbl> <dbl> <dbl> <dbl>     <dbl>     <dbl> <dbl> <dbl> <dbl>
 1 100.0   100 100.0   100 100.00   100   100 100.0   100    12 100.00000 100.00000   100   100  80.0
 2  85.0    95 100.0    95  95.00    95   100 100.0   100    12  91.66667  88.88889    90    95  57.6
 3  87.5   100  85.0    70 100.00    98     0  80.0     0     7  83.33333  55.55556    50     0  56.8
 4  92.5   100 100.0   100  96.25    99   100  92.5    95    12  66.66667  88.88889    65    65  69.6
 5  32.5     0  65.0    60   0.00    46     0   0.0     0     5  41.66667  50.00000     0     0  40.0
 6  75.0    85  92.5    95 100.00    91     0   0.0    90     9  91.66667  94.44444     0    75  73.6
 7  90.0   100  97.5    95  80.00    80    52  90.0    90    12  91.66667  50.00000    75    90  78.4
 8  92.5    95 100.0    90 100.00    72    95  74.5   100    12  83.33333  44.44444    60    65  52.0
 9  82.5    85  92.5    70 100.00     0    84  90.0    95    12  91.66667 100.00000    70    95  80.0
10  75.0    95  95.0    95  95.00    96     0 100.0    98    12  58.33333  55.55556    65    80  63.2
# ... with 324 more rows, and 8 more variables: EX2 <dbl>, Test1 <dbl>, Test2 <dbl>, Homework <dbl>,
#   Quiz <dbl>, Lab <dbl>, Overall <dbl>, Grade <chr>
# A tibble: 334 x 23
     HW1   HW2   HW3   HW4    HW5   HW6   HW7   HW8   HW9   ATT       QZ1       QZ2   QZ3   QZ4   EX1
   <dbl> <dbl> <dbl> <dbl>  <dbl> <dbl> <dbl> <dbl> <dbl> <int>     <dbl>     <dbl> <dbl> <int> <dbl>
 1 100.0   100 100.0   100 100.00   100   100 100.0   100    12 100.00000 100.00000   100   100  80.0
 2  85.0    95 100.0    95  95.00    95   100 100.0   100    12  91.66667  88.88889    90    95  57.6
 3  87.5   100  85.0    70 100.00    98     0  80.0     0     7  83.33333  55.55556    50     0  56.8
 4  92.5   100 100.0   100  96.25    99   100  92.5    95    12  66.66667  88.88889    65    65  69.6
 5  32.5     0  65.0    60   0.00    46     0   0.0     0     5  41.66667  50.00000     0     0  40.0
 6  75.0    85  92.5    95 100.00    91     0   0.0    90     9  91.66667  94.44444     0    75  73.6
 7  90.0   100  97.5    95  80.00    80    52  90.0    90    12  91.66667  50.00000    75    90  78.4
 8  92.5    95 100.0    90 100.00    72    95  74.5   100    12  83.33333  44.44444    60    65  52.0
 9  82.5    85  92.5    70 100.00     0    84  90.0    95    12  91.66667 100.00000    70    95  80.0
10  75.0    95  95.0    95  95.00    96     0 100.0    98    12  58.33333  55.55556    65    80  63.2
# ... with 324 more rows, and 8 more variables: EX2 <dbl>, Test1 <dbl>, Test2 <dbl>, Homework <dbl>,
#   Quiz <dbl>, Lab <int>, Overall <dbl>, Grade <chr>
…
